<!-- Generated by IcoMoon.io -->
<svg version="1.1" xmlns="http://www.w3.org/2000/svg" width="25" height="32" viewBox="0 0 25 32">
<title>Arrow-Up-2px</title>
<path fill="none" stroke="#170c3a" stroke-linejoin="miter" stroke-linecap="butt" stroke-miterlimit="10" stroke-width="1.0421" d="M12.527 0.737v31.263"></path>
<path fill="none" stroke="#170c3a" stroke-linejoin="miter" stroke-linecap="butt" stroke-miterlimit="10" stroke-width="1.0421" d="M24.684 12.895l-12.158-12.158-12.158 12.158"></path>
</svg>
