<!-- Generated by IcoMoon.io -->
<svg version="1.1" xmlns="http://www.w3.org/2000/svg" width="15" height="32" viewBox="0 0 15 32">
<title>Attach-2px</title>
<path fill="none" stroke="#170c3a" stroke-linejoin="miter" stroke-linecap="butt" stroke-miterlimit="10" stroke-width="1.0323" d="M10.839 20.129v-8.258c0-1.71-1.386-3.097-3.097-3.097s-3.097 1.386-3.097 3.097v0 14.452c0 2.851 2.311 5.161 5.161 5.161s5.161-2.311 5.161-5.161v0-18.581c0-3.991-3.235-7.226-7.226-7.226s-7.226 3.235-7.226 7.226v0 12.387"></path>
</svg>
