<!-- Generated by IcoMoon.io -->
<svg version="1.1" xmlns="http://www.w3.org/2000/svg" width="23" height="32" viewBox="0 0 23 32">
<title>Attachment-2px</title>
<path fill="none" stroke="#170c3a" stroke-linejoin="miter" stroke-linecap="butt" stroke-miterlimit="10" stroke-width="1.0323" d="M0.516 3.613v27.871h21.677v-20.645l-7.226-7.226z"></path>
<path fill="none" stroke="#170c3a" stroke-linejoin="miter" stroke-linecap="butt" stroke-miterlimit="10" stroke-width="1.0323" d="M14.968 3.613v7.226h7.226"></path>
<path fill="none" stroke="#170c3a" stroke-linejoin="miter" stroke-linecap="butt" stroke-miterlimit="10" stroke-width="1.0323" d="M8.774 7.226v2.581c0 1.14-0.924 2.065-2.065 2.065s-2.065-0.924-2.065-2.065v0-6.71c0-1.425 1.155-2.581 2.581-2.581s2.581 1.155 2.581 2.581v0 0.516"></path>
</svg>
