<!-- Generated by IcoMoon.io -->
<svg version="1.1" xmlns="http://www.w3.org/2000/svg" width="36" height="32" viewBox="0 0 36 32">
<title>Cart-2px</title>
<path fill="none" stroke="#170c3a" stroke-linejoin="miter" stroke-linecap="butt" stroke-miterlimit="10" stroke-width="1.1852" d="M0 0.593h5.926l5.926 23.704h18.963l4.741-14.222h-27.259"></path>
<path fill="none" stroke="#170c3a" stroke-linejoin="miter" stroke-linecap="butt" stroke-miterlimit="10" stroke-width="1.1852" d="M14.815 29.037c0 1.309-1.061 2.37-2.37 2.37s-2.37-1.061-2.37-2.37c0-1.309 1.061-2.37 2.37-2.37s2.37 1.061 2.37 2.37z"></path>
<path fill="none" stroke="#170c3a" stroke-linejoin="miter" stroke-linecap="butt" stroke-miterlimit="10" stroke-width="1.1852" d="M30.222 29.037c0 1.309-1.061 2.37-2.37 2.37s-2.37-1.061-2.37-2.37c0-1.309 1.061-2.37 2.37-2.37s2.37 1.061 2.37 2.37z"></path>
</svg>
