<svg height="61.42" viewBox="0 0 61.414 61.42" width="61.414" xmlns="http://www.w3.org/2000/svg">
	<defs>
		<style>
			.a{
				fill:none;
				stroke:#8F8A9B;
				stroke-miterlimit:10;
				stroke-width:12px;
			}
		</style>
	</defs>
	<g transform="translate(-568.793 -714.793)">
		<path class="a" d="M80,20.005l-60,60m60,0L20,20" transform="translate(549.501 695.5)"/>
	</g>
</svg>