<svg version="1.1" xmlns="http://www.w3.org/2000/svg" width="52" height="32" viewBox="0 0 52 32">
<title>Code-2px</title>
<path fill="none" stroke="#170c3a" stroke-linejoin="miter" stroke-linecap="butt" stroke-miterlimit="10" stroke-width="1.6736" d="M37.803 0.551l13.518 15.449-13.518 15.449M14.63 0.551l-13.518 15.449 13.518 15.449"></path>
</svg>
