<!-- Generated by IcoMoon.io -->
<svg version="1.1" xmlns="http://www.w3.org/2000/svg" width="34" height="32" viewBox="0 0 34 32">
<title>Comments-2px</title>
<path fill="none" stroke="#170c3a" stroke-linejoin="miter" stroke-linecap="butt" stroke-miterlimit="4" stroke-width="1.0938" d="M14.766 16.953v7.656h9.242l6.070 6.070v-6.070h3.281v-12.031h-5.469"></path>
<path fill="none" stroke="#170c3a" stroke-linejoin="miter" stroke-linecap="butt" stroke-miterlimit="4" stroke-width="1.0938" d="M27.891 0.547h-27.344v16.406h4.375v6.016l6.070-6.016h16.899z"></path>
</svg>
