<!-- Generated by IcoMoon.io -->
<svg version="1.1" xmlns="http://www.w3.org/2000/svg" width="32" height="32" viewBox="0 0 32 32">
<title>Danger-2px</title>
<path fill="none" stroke="#170c3a" stroke-linejoin="miter" stroke-linecap="butt" stroke-miterlimit="4" stroke-width="1.0186" d="M0.72 16l15.279-15.279 15.279 15.279-15.279 15.279-15.279-15.279z"></path>
<path fill="#170c3a" stroke="#170c3a" stroke-linejoin="miter" stroke-linecap="butt" stroke-miterlimit="10" stroke-width="1.0186" d="M16.509 23.385c0 0.422-0.342 0.764-0.764 0.764s-0.764-0.342-0.764-0.764c0-0.422 0.342-0.764 0.764-0.764s0.764 0.342 0.764 0.764z"></path>
</svg>
