<!-- Generated by IcoMoon.io -->
<svg version="1.1" xmlns="http://www.w3.org/2000/svg" width="32" height="32" viewBox="0 0 32 32">
<title>Discount-2px</title>
<path fill="none" stroke="#170c3a" stroke-linejoin="miter" stroke-linecap="butt" stroke-miterlimit="10" stroke-width="1.0262" d="M12.921 11.382c0 1.417-1.149 2.565-2.565 2.565s-2.565-1.149-2.565-2.565c0-1.417 1.149-2.565 2.565-2.565s2.565 1.149 2.565 2.565z"></path>
<path fill="none" stroke="#170c3a" stroke-linejoin="miter" stroke-linecap="butt" stroke-miterlimit="10" stroke-width="1.0262" d="M24.209 20.618c0 1.417-1.149 2.565-2.565 2.565s-2.565-1.149-2.565-2.565c0-1.417 1.149-2.565 2.565-2.565s2.565 1.149 2.565 2.565z"></path>
<path fill="none" stroke="#170c3a" stroke-linejoin="round" stroke-linecap="butt" stroke-miterlimit="10" stroke-width="1.0262" d="M23.183 8.817l-14.366 14.366"></path>
<path fill="none" stroke="#170c3a" stroke-linejoin="miter" stroke-linecap="butt" stroke-miterlimit="10" stroke-width="1.0262" d="M16 1.89l3.078-1.283 2.309 2.36h3.335l1.283 3.027 3.027 1.283v3.335l2.36 2.309-1.283 3.079 1.283 3.078-2.36 2.309v3.335l-3.027 1.283-1.283 3.027h-3.335l-2.309 2.36-3.079-1.283-3.079 1.283-2.309-2.36h-3.335l-1.283-3.027-3.027-1.283v-3.335l-2.36-2.309 1.283-3.079-1.283-3.079 2.36-2.309v-3.335l3.027-1.283 1.283-3.027h3.335l2.309-2.36z"></path>
</svg>
