<!-- Generated by IcoMoon.io -->
<svg version="1.1" xmlns="http://www.w3.org/2000/svg" width="36" height="32" viewBox="0 0 36 32">
<title>Fork-2px</title>
<path fill="none" stroke="#170c3a" stroke-linejoin="miter" stroke-linecap="butt" stroke-miterlimit="10" stroke-width="1.1787" d="M30.567 10.006l4.795-4.795-4.795-4.795M30.567 31.583l4.795-4.795-4.795-4.795"></path>
<path fill="none" stroke="#170c3a" stroke-linejoin="miter" stroke-linecap="butt" stroke-miterlimit="10" stroke-width="1.1787" d="M18.041 13.182l4.076-5.574M12.587 16c2.239-0.015 4.218-1.114 5.441-2.798l0.014-0.020M22.116 7.608c1.218-1.469 3.043-2.397 5.085-2.397 0.003 0 0.007 0 0.010 0h8.151M18.041 18.817l4.076 5.574M0 16h12.587c2.259 0.005 4.26 1.105 5.501 2.798l0.013 0.019M22.117 24.391c1.218 1.469 3.043 2.398 5.086 2.398 0.003 0 0.006 0 0.009 0h8.151"></path>
</svg>
