<!-- Generated by IcoMoon.io -->
<svg version="1.1" xmlns="http://www.w3.org/2000/svg" width="32" height="32" viewBox="0 0 32 32">
<title>Happy-2px</title>
<path fill="none" stroke="#170c3a" stroke-linejoin="miter" stroke-linecap="butt" stroke-miterlimit="10" stroke-width="1.0323" d="M31.484 16c0 8.552-6.932 15.484-15.484 15.484s-15.484-6.932-15.484-15.484c0-8.552 6.932-15.484 15.484-15.484s15.484 6.932 15.484 15.484z"></path>
<path fill="none" stroke="#170c3a" stroke-linejoin="miter" stroke-linecap="butt" stroke-miterlimit="10" stroke-width="1.0323" d="M24.258 20.594c-1.694 2.82-4.736 4.678-8.213 4.678-3.54 0-6.629-1.926-8.278-4.787l-0.025-0.046M8.774 13.884c0-1.14 0.924-2.065 2.065-2.065s2.065 0.924 2.065 2.065v0M19.097 13.884c0-1.14 0.924-2.065 2.065-2.065s2.065 0.924 2.065 2.065v0"></path>
</svg>
