<!-- Generated by IcoMoon.io -->
<svg version="1.1" xmlns="http://www.w3.org/2000/svg" width="27" height="32" viewBox="0 0 27 32">
<title>Icon-Logo-Bossa</title>
<path fill="#170c3a" d="M25.999 19.069c-0.504-0.413-1.055-0.825-1.559-1.238-0.229-0.183-0.459-0.367-0.734-0.55l-1.559-1.284 0.642-0.504c1.009-0.825 2.109-1.697 3.118-2.522 0.2-0.164 0.379-0.329 0.549-0.503l0.001-0.001c0.825-1.055 0.596-2.43-0.55-3.347l-2.889-2.338-1.559-1.284c-0.596-0.459-1.192-0.963-1.788-1.421-1.376-1.1-2.751-2.247-4.173-3.347-0.545-0.453-1.252-0.728-2.023-0.728-0.745 0-1.431 0.257-1.973 0.687l0.007-0.005c-4.081 3.301-7.428 5.961-10.5 8.437-0.599 0.441-0.989 1.136-1.009 1.923l-0 0.003c0.020 0.79 0.41 1.485 1.002 1.921l0.007 0.005c0.367 0.275 0.688 0.55 1.055 0.825 0.236 0.183 0.446 0.363 0.645 0.553l-0.003-0.003c0.55 0.459 1.1 0.871 1.651 1.33l0.413 0.321c-0.367 0.321-0.78 0.642-1.146 0.917-0.871 0.688-1.788 1.421-2.659 2.155-0.587 0.433-0.963 1.121-0.963 1.897 0 0.756 0.357 1.429 0.912 1.859l0.005 0.004c0.321 0.275 0.688 0.55 1.055 0.825 0.138 0.092 0.275 0.229 0.413 0.321 0.825 0.642 1.651 1.33 2.43 1.972 2.155 1.742 4.402 3.577 6.649 5.319 0.525 0.456 1.216 0.734 1.971 0.734 0 0 0 0 0.001 0h-0c0.553-0.014 1.071-0.148 1.535-0.376l-0.021 0.010c0.314-0.17 0.584-0.352 0.834-0.557l-0.009 0.007c0.051-0.056 0.112-0.102 0.18-0.136l0.004-0.002 1.605-1.284c2.797-2.247 5.64-4.539 8.483-6.832 0.57-0.44 0.94-1.114 0.963-1.876l0-0.004c-0.075-0.762-0.45-1.424-1.004-1.876l-0.005-0.004zM12.335 10.082c-0.675 0.321-1.252 0.736-1.741 1.237l-0.001 0.001c-0.181 0.176-0.376 0.341-0.581 0.493l-0.016 0.011c-0.871 0.688-1.697 1.376-2.568 2.063-0.275 0.229-0.596 0.459-0.871 0.688-0.301-0.272-0.63-0.529-0.978-0.76l-0.031-0.019c-1.055-0.871-2.155-1.742-3.21-2.614-0.138-0.092-0.138-0.138-0.138-0.138s0-0.092 0.183-0.229c2.247-1.834 4.539-3.668 6.786-5.502l1.605-1.284c0.504-0.413 1.009-0.825 1.559-1.238zM2.384 20.766c1.146-0.917 2.339-1.88 3.485-2.797l0.688-0.55c0.367 0.275 0.734 0.596 1.1 0.871 1.192 0.963 2.43 1.972 3.668 2.935 0.229 0.183 0.504 0.367 0.78 0.55 0.092 0.046 0.138 0.092 0.229 0.138v7.291c-3.301-2.659-6.603-5.319-9.95-8.024-0.183-0.138-0.183-0.229-0.183-0.229s0-0.046 0.183-0.183zM24.577 11.183l-1.513 1.238c-0.183 0.183-0.413 0.321-0.596 0.504l-2.063 1.651-2.063-1.651c-0.275-0.229-0.504-0.413-0.779-0.642l-2.063-1.651c-0.183-0.138-0.367-0.229-0.55-0.367-0.123-0.056-0.229-0.118-0.327-0.188l0.006 0.004v-7.291l0.183 0.138c0.55 0.413 1.055 0.825 1.559 1.238 2.705 2.155 5.411 4.356 8.070 6.511l0.046 0.046c0.051 0.056 0.112 0.102 0.18 0.136l0.004 0.002c0.138 0.138 0.138 0.183 0.138 0.183-0.092 0-0.092 0.046-0.229 0.138zM14.123 19.62c-0.17 0.17-0.405 0.275-0.665 0.275s-0.495-0.105-0.665-0.275v0c-1.33-1.1-2.705-2.155-4.035-3.256l-0.459-0.367 3.668-2.935c0.092-0.092 0.183-0.138 0.275-0.229 0.191-0.168 0.4-0.333 0.618-0.488l0.024-0.016c0.164-0.132 0.375-0.212 0.604-0.212 0.202 0 0.39 0.062 0.545 0.168l-0.003-0.002c1.192 0.963 2.384 1.926 3.577 2.843 0.367 0.275 0.688 0.55 1.055 0.825-0.138 0.092-0.229 0.183-0.367 0.275-1.192 0.963-2.43 1.972-3.622 2.935zM14.581 21.912c0.088-0.038 0.163-0.084 0.231-0.139l-0.002 0.002c0.319-0.188 0.589-0.37 0.847-0.566l-0.021 0.015c1.238-0.963 2.476-1.972 3.668-2.935 0.367-0.275 0.734-0.596 1.1-0.871l0.459 0.367c0.504 0.413 0.963 0.779 1.467 1.192 0.596 0.504 1.192 0.963 1.788 1.467l0.275 0.229c0.229 0.183 0.321 0.275 0.321 0.321s-0.092 0.138-0.321 0.321c-3.164 2.522-6.282 5.090-9.446 7.612l-0.367 0.321v-7.337z"></path>
</svg>
