<!-- Generated by IcoMoon.io -->
<svg version="1.1" xmlns="http://www.w3.org/2000/svg" width="40" height="32" viewBox="0 0 40 32">
<title>Icon-Folder-2px</title>
<path fill="none" stroke="#170c3a" stroke-linejoin="miter" stroke-linecap="butt" stroke-miterlimit="10" stroke-width="1.28" d="M0.64 30.080c0 0.707 0.573 1.28 1.28 1.28v0h35.84c0.707 0 1.28-0.573 1.28-1.28v0-25.6h-24.32v-3.84h-14.080z"></path>
</svg>
