<!-- Generated by IcoMoon.io -->
<svg version="1.1" xmlns="http://www.w3.org/2000/svg" width="33" height="32" viewBox="0 0 33 32">
<title>Like-2px</title>
<path fill="none" stroke="#170c3a" stroke-linejoin="miter" stroke-linecap="butt" stroke-miterlimit="10" stroke-width="1.0692" d="M29.174 17.718h1.146c1.25-0.020 2.256-1.038 2.256-2.291s-1.006-2.271-2.254-2.291l-0.002-0h-12.601c0.728-3.079 1.146-6.614 1.146-10.247 0-0.022-0-0.045-0-0.067v0.003c0-0.010 0-0.023 0-0.035 0-1.265-1.026-2.291-2.291-2.291s-2.291 1.026-2.291 2.291c0 0.012 0 0.025 0 0.037l-0-0.002s-2.291 12.601-10.31 12.601h-3.437v13.747h5.728c2.291 0 6.873 2.291 9.165 2.291h11.456c1.25-0.020 2.256-1.038 2.256-2.291s-1.006-2.271-2.254-2.291l-0.002-0h1.146c0.010 0 0.023 0 0.035 0 1.265 0 2.291-1.026 2.291-2.291s-1.026-2.291-2.291-2.291c-0.012 0-0.025 0-0.037 0l0.002-0h1.146c0.010 0 0.023 0 0.035 0 1.265 0 2.291-1.026 2.291-2.291s-1.026-2.291-2.291-2.291c-0.012 0-0.025 0-0.037 0l0.002-0"></path>
</svg>
