<!-- Generated by IcoMoon.io -->
<svg version="1.1" xmlns="http://www.w3.org/2000/svg" width="90" height="32" viewBox="0 0 90 32">
<title>Link-2px</title>
<path fill="none" stroke="#170c3a" stroke-linejoin="miter" stroke-linecap="butt" stroke-miterlimit="10" stroke-width="2.9091" d="M59.636 1.455h14.545c8.033 0 14.545 6.512 14.545 14.545s-6.512 14.545-14.545 14.545v0h-23.273c-8.035-0.007-14.546-6.523-14.546-14.559 0-1.025 0.106-2.025 0.307-2.991l-0.017 0.095"></path>
<path fill="none" stroke="#170c3a" stroke-linejoin="miter" stroke-linecap="butt" stroke-miterlimit="10" stroke-width="2.9091" d="M30.545 30.545h-14.545c-8.033 0-14.545-6.512-14.545-14.545s6.512-14.545 14.545-14.545v0h23.273c8.035 0.007 14.546 6.523 14.546 14.559 0 1.025-0.106 2.025-0.307 2.991l0.017-0.095"></path>
</svg>
