<!-- Generated by IcoMoon.io -->
<svg version="1.1" xmlns="http://www.w3.org/2000/svg" width="32" height="32" viewBox="0 0 32 32">
<title>Money-2px</title>
<path fill="none" stroke="#170c3a" stroke-linejoin="miter" stroke-linecap="butt" stroke-miterlimit="10" stroke-width="1.0323" d="M20.072 11.871c-0.341-1.965-2.034-3.441-4.071-3.441-0 0-0 0-0.001 0h0c-2.28 0-4.129 1.504-4.129 3.785s2.065 3.314 4.129 3.785 4.129 1.506 4.129 3.785-1.849 3.785-4.129 3.785c-2.28 0-4.129-1.849-4.129-4.129v0"></path>
<path fill="none" stroke="#170c3a" stroke-linejoin="miter" stroke-linecap="butt" stroke-miterlimit="10" stroke-width="1.0323" d="M16 8.43v-2.753M16 26.323v-2.753"></path>
<path fill="none" stroke="#170c3a" stroke-linejoin="miter" stroke-linecap="butt" stroke-miterlimit="10" stroke-width="1.0323" d="M31.484 16c0 8.552-6.932 15.484-15.484 15.484s-15.484-6.932-15.484-15.484c0-8.552 6.932-15.484 15.484-15.484s15.484 6.932 15.484 15.484z"></path>
</svg>
