<!-- Generated by IcoMoon.io -->
<svg version="1.1" xmlns="http://www.w3.org/2000/svg" width="32" height="32" viewBox="0 0 32 32">
<title>Pin-2px</title>
<path fill="none" stroke="#170c3a" stroke-linejoin="miter" stroke-linecap="butt" stroke-miterlimit="10" stroke-width="1.0308" d="M18.998 25.024l2.243-2.191v-5.894l5.528-5.582c0.408 0.276 0.91 0.441 1.451 0.441 0.715 0 1.363-0.288 1.835-0.754l0.73-0.73-9.545-9.597-0.782 0.73c-0.466 0.471-0.754 1.119-0.754 1.834 0 0.541 0.165 1.044 0.447 1.461l-0.006-0.009-5.581 5.529h-5.894l-2.191 2.191z"></path>
</svg>
