<!-- Generated by IcoMoon.io -->
<svg version="1.1" xmlns="http://www.w3.org/2000/svg" width="22" height="32" viewBox="0 0 22 32">
<title>Position-2px</title>
<path fill="none" stroke="#170c3a" stroke-linejoin="miter" stroke-linecap="butt" stroke-miterlimit="10" stroke-width="1.0248" d="M10.934 0.512c-5.756 0-10.422 4.666-10.422 10.422v0c0 9.38 10.422 20.323 10.422 20.323s10.422-10.943 10.422-20.323c0-5.756-4.666-10.422-10.422-10.422v0z"></path>
</svg>
