<!-- Generated by IcoMoon.io -->
<svg version="1.1" xmlns="http://www.w3.org/2000/svg" width="37" height="32" viewBox="0 0 37 32">
<title>Rotate-2px</title>
<path fill="none" stroke="#170c3a" stroke-linejoin="miter" stroke-linecap="butt" stroke-miterlimit="10" stroke-width="1.1838" d="M5.321 17.765c-0.064-0.526-0.1-1.135-0.1-1.753 0-8.5 6.89-15.39 15.39-15.39s15.39 6.89 15.39 15.39c0 8.5-6.89 15.39-15.39 15.39-4.25 0-8.097-1.723-10.882-4.508v0"></path>
<path fill="none" stroke="#170c3a" stroke-linejoin="miter" stroke-linecap="butt" stroke-miterlimit="10" stroke-width="1.1838" d="M0.488 10.698l4.832 7.067 6.4-5.884"></path>
</svg>
