<!-- Generated by IcoMoon.io -->
<svg version="1.1" xmlns="http://www.w3.org/2000/svg" width="32" height="32" viewBox="0 0 32 32">
<title>Save-2px</title>
<path fill="none" stroke="#170c3a" stroke-linejoin="miter" stroke-linecap="butt" stroke-miterlimit="10" stroke-width="1.0323" d="M26.323 31.484v-14.452h-20.645v14.452M10.839 22.194h10.323M10.839 26.323h8.258"></path>
<path fill="none" stroke="#170c3a" stroke-linejoin="miter" stroke-linecap="butt" stroke-miterlimit="10" stroke-width="1.0323" d="M27.355 0.516l4.129 4.129v26.839h-30.968v-30.968zM21.161 4.645v2.065"></path>
<path fill="none" stroke="#170c3a" stroke-linejoin="miter" stroke-linecap="butt" stroke-miterlimit="10" stroke-width="1.0323" d="M25.29 0.516v9.29c0 0.57-0.462 1.032-1.032 1.032v0h-10.323c-0.57 0-1.032-0.462-1.032-1.032v0-9.29"></path>
</svg>
