<!-- Generated by IcoMoon.io -->
<svg version="1.1" xmlns="http://www.w3.org/2000/svg" width="41" height="32" viewBox="0 0 41 32">
<title>Shuffle-2px</title>
<path fill="none" stroke="#170c3a" stroke-linejoin="miter" stroke-linecap="butt" stroke-miterlimit="10" stroke-width="1.328" d="M34.437 11.273l5.402-5.402-5.402-5.402"></path>
<path fill="none" stroke="#170c3a" stroke-linejoin="miter" stroke-linecap="butt" stroke-miterlimit="10" stroke-width="1.328" d="M34.437 31.53l5.402-5.402-5.402-5.401"></path>
<path fill="none" stroke="#170c3a" stroke-linejoin="miter" stroke-linecap="butt" stroke-miterlimit="10" stroke-width="1.328" d="M39.839 5.872h-9.453c-2.701 0-4.727 0.675-6.077 2.701l-10.804 14.855c-2.026 2.701-3.376 2.701-6.077 2.701h-7.427"></path>
<path fill="none" stroke="#170c3a" stroke-linejoin="miter" stroke-linecap="butt" stroke-miterlimit="10" stroke-width="1.328" d="M16.948 13.299l-3.443-4.727c-2.026-2.7-3.376-2.7-6.077-2.7h-7.427M39.839 26.128h-9.453c-2.701 0-4.727-0.675-6.077-2.701l-3.376-4.050"></path>
</svg>
