<!-- Generated by IcoMoon.io -->
<svg version="1.1" xmlns="http://www.w3.org/2000/svg" width="35" height="32" viewBox="0 0 35 32">
<title>Silent-2px</title>
<path fill="none" stroke="#170c3a" stroke-linejoin="miter" stroke-linecap="butt" stroke-miterlimit="10" stroke-width="1.1262" d="M18.582 1.359l-10.136 10.136h-6.757c-0.622 0-1.126 0.504-1.126 1.126v0 6.757c0 0.622 0.504 1.126 1.126 1.126v0h6.757l10.136 10.136z"></path>
<path fill="none" stroke="#170c3a" stroke-linejoin="miter" stroke-linecap="butt" stroke-miterlimit="10" stroke-width="1.1262" d="M25.339 11.495l9.009 9.010M34.349 11.495l-9.009 9.010"></path>
</svg>
