<!-- Generated by IcoMoon.io -->
<svg version="1.1" xmlns="http://www.w3.org/2000/svg" width="32" height="32" viewBox="0 0 32 32">
<title>Speed-2px</title>
<path fill="none" stroke="#170c3a" stroke-linejoin="miter" stroke-linecap="butt" stroke-miterlimit="4" stroke-width="1.0323" d="M31.484 16c0 8.552-6.932 15.484-15.484 15.484s-15.484-6.932-15.484-15.484c0-8.552 6.932-15.484 15.484-15.484s15.484 6.932 15.484 15.484z"></path>
<path fill="none" stroke="#170c3a" stroke-linejoin="miter" stroke-linecap="butt" stroke-miterlimit="4" stroke-width="1.0323" d="M4.645 16c0-6.271 5.084-11.355 11.355-11.355s11.355 5.084 11.355 11.355v0"></path>
<path fill="none" stroke="#170c3a" stroke-linejoin="miter" stroke-linecap="butt" stroke-miterlimit="4" stroke-width="1.0323" d="M11.871 9.806l2.162 8.847c0.259 0.862 1.045 1.479 1.975 1.479 1.137 0 2.058-0.921 2.058-2.058 0-0.491-0.172-0.942-0.459-1.295l0.003 0.004c0.003-0.061-5.738-6.977-5.738-6.977"></path>
</svg>
