<!-- Generated by IcoMoon.io -->
<svg version="1.1" xmlns="http://www.w3.org/2000/svg" width="40" height="32" viewBox="0 0 40 32">
<title>Team-2px</title>
<path fill="none" stroke="#170c3a" stroke-linejoin="miter" stroke-linecap="butt" stroke-miterlimit="4" stroke-width="1.0323" d="M21.295 7.69c0 3.962-3.208 7.174-7.165 7.174s-7.165-3.212-7.165-7.174c0-3.962 3.208-7.174 7.165-7.174s7.165 3.212 7.165 7.174z"></path>
<path fill="none" stroke="#170c3a" stroke-linejoin="miter" stroke-linecap="butt" stroke-miterlimit="4" stroke-width="1.0323" d="M29.507 21.781c-1.883 0.009-3.648 0.506-5.179 1.37l0.053-0.028c1.98 2.223 3.229 5.136 3.346 8.337l0.001 0.024h11.977c-0.227-5.407-4.666-9.704-10.108-9.704-0.032 0-0.064 0-0.096 0l0.005-0z"></path>
<path fill="none" stroke="#170c3a" stroke-linejoin="miter" stroke-linecap="butt" stroke-miterlimit="4" stroke-width="1.0323" d="M24.381 23.123c-2.506-2.823-6.145-4.594-10.198-4.594-0.019 0-0.038 0-0.057 0h0.003c-0.033-0-0.071-0-0.11-0-7.264 0-13.188 5.738-13.488 12.928l-0.001 0.027h27.197c-0.118-3.226-1.367-6.138-3.359-8.375l0.012 0.013z"></path>
<path fill="none" stroke="#170c3a" stroke-linejoin="miter" stroke-linecap="butt" stroke-miterlimit="4" stroke-width="1.0323" d="M34.894 13.677c0 2.965-2.412 5.368-5.387 5.368s-5.387-2.403-5.387-5.368c0-2.965 2.412-5.368 5.387-5.368s5.387 2.403 5.387 5.368z"></path>
</svg>
