<!-- Generated by IcoMoon.io -->
<svg version="1.1" xmlns="http://www.w3.org/2000/svg" width="38" height="32" viewBox="0 0 38 32">
<title>Text-Check-2px</title>
<path fill="none" stroke="#170c3a" stroke-linejoin="miter" stroke-linecap="butt" stroke-miterlimit="10" stroke-width="1.28" d="M0 0.64h38.4M0 10.88h38.4M0 21.12h15.36M0 31.36h15.36"></path>
<path fill="none" stroke="#170c3a" stroke-linejoin="miter" stroke-linecap="butt" stroke-miterlimit="10" stroke-width="1.28" d="M21.12 24.32l5.12 5.76 10.24-10.24"></path>
</svg>
